    material Target/Image
    {
      technique
      {
        pass
        {

          texture_unit
          {
            texture target_blue.png
            scale 1 1
          }
        }
      }
    }
